sku,store_view_code,attribute_set_code,product_type,categories,product_websites,name,description,short_description,weight,product_online,tax_class_name,visibility,price,special_price,special_price_from_date,special_price_to_date,url_key,meta_title,meta_keywords,meta_description,base_image,base_image_label,small_image,small_image_label,thumbnail_image,thumbnail_image_label,swatch_image,swatch_image_label,created_at,updated_at,new_from_date,new_to_date,display_product_options_in,map_price,msrp_price,map_enabled,gift_message_available,custom_design,custom_design_from,custom_design_to,custom_layout_update,page_layout,product_options_container,msrp_display_actual_price_type,country_of_manufacture,additional_attributes,qty,out_of_stock_qty,use_config_min_qty,is_qty_decimal,allow_backorders,use_config_backorders,min_cart_qty,use_config_min_sale_qty,max_cart_qty,use_config_max_sale_qty,is_in_stock,notify_on_stock_below,use_config_notify_stock_qty,manage_stock,use_config_manage_stock,use_config_qty_increments,qty_increments,use_config_enable_qty_inc,enable_qty_increments,is_decimal_divided,website_id,related_skus,related_position,crosssell_skus,crosssell_position,upsell_skus,upsell_position,additional_images,additional_image_labels,hide_from_product_page,custom_options,bundle_price_type,bundle_sku_type,bundle_price_view,bundle_weight_type,bundle_values,bundle_shipment_type,associated_skus
"Brown Paper Carriers - Tape Handle-1",,Default,simple,"Default Category/Paper,Default Category/Featured,Default Category/Tape,Default Category/ Custom Printed",base,"Brown Paper Carriers - Tape Handle1","<p>Brown Paper Carriers - Tape Handle Lorem ipsum dolor sit amet, consectetuer adipiscing elit, sed diam nonummy nibh euismod tincidunt ut laoreet dolore magna aliquam erat volutpat. Ut wisi enim ad minim veniam, quis nostrud exerci tation ullamcorper suscipit lobortis nisl ut aliquip ex ea commodo consequat. Duis autem vel eum iriure dolor in hendrerit in vulputate velit esse molestie consequat, vel illum dolore eu feugiat nulla facilisis at vero eros et accumsan et iusto. Lorem ipsum dolor sit amet, consectetuer adipiscing elit, sed diam nonummy nibh euismod tincidunt ut laoreet dolore magna aliquam erat volutpat. Ut wisi enim ad minim veniam, quis nostrud exerci tation ullamcorper suscipit lobortis nisl ut aliquip ex ea commodo consequat. Duis autem vel eum iriure dolor in hendrerit in vulputate</p>","<ul>
<li><a href=""#"">Durable thick paper</a></li>
<li><a href=""#"">Comfortable tape handle</a></li>
<li><a href=""#"">Available in three sizes</a></li>
<li><a href=""#"">Also available with <span>custom print</span></a></li>
</ul>",,1,0,"Catalog, Search",70.0000,,,,brown-paper-carriers-tape-handle-4,"Brown Paper Carriers - Tape Handle","Brown Paper Carriers - Tape Handle","Brown Paper Carriers - Tape Handle Brown Paper Carriers - Tape Handle Lorem ipsum dolor sit amet, consectetuer adipiscing elit, sed diam nonummy nibh euismod tincidunt ut laoreet dolore magna aliquam erat volutpat. Ut wisi enim ad minim veniam, quis nostr",/p/r/pro-detail_pic_2.png,,/p/r/pro-detail_pic_2.png,,/p/r/pro-detail_pic_2.png,,/p/r/pro-detail_pic_2.png,,"1/27/17, 7:03 AM","1/27/17, 7:03 AM",,,"Block after Info Column",,,,"Use config",,,,,,,"Use config",,,100.0000,0.0000,1,0,0,1,1.0000,1,10000.0000,1,1,1.0000,1,1,1,1,1.0000,1,0,0,0,,,,,,,"/p/r/pro-detail_pic_5.png,/p/r/pro-sm-2_4.png,/p/r/pro-sm-3_4.png,/p/r/pro-sm-4_4.png",",,,",,,,,,,,,
"Brown Paper Carriers - Tape Handle",,Default,simple,"Default Category/Paper,Default Category/Featured,Default Category/Special Offers",base,"Brown Paper Carriers - Tape Handle","<p>Brown Paper Carriers - Tape Handle Lorem ipsum dolor sit amet, consectetuer adipiscing elit, sed diam nonummy nibh euismod tincidunt ut laoreet dolore magna aliquam erat volutpat. Ut wisi enim ad minim veniam, quis nostrud exerci tation ullamcorper suscipit lobortis nisl ut aliquip ex ea commodo consequat. Duis autem vel eum iriure dolor in hendrerit in vulputate velit esse molestie consequat, vel illum dolore eu feugiat nulla facilisis at vero eros et accumsan et iusto. Lorem ipsum dolor sit amet, consectetuer adipiscing elit, sed diam nonummy nibh euismod tincidunt ut laoreet dolore magna aliquam erat volutpat. Ut wisi enim ad minim veniam, quis nostrud exerci tation ullamcorper suscipit lobortis nisl ut aliquip ex ea commodo consequat. Duis autem vel eum iriure dolor in hendrerit in vulputate</p>","<ul>
<li><a href=""#"">Durable thick paper</a></li>
<li><a href=""#"">Comfortable tape handle</a></li>
<li><a href=""#"">Available in three sizes</a></li>
<li><a href=""#"">Also available with <span>custom print</span></a></li>
</ul>",,1,0,"Catalog, Search",70.0000,,,,brown-paper-carriers-tape-handle,"Brown Paper Carriers - Tape Handle","Brown Paper Carriers - Tape Handle","Brown Paper Carriers - Tape Handle Brown Paper Carriers - Tape Handle Lorem ipsum dolor sit amet, consectetuer adipiscing elit, sed diam nonummy nibh euismod tincidunt ut laoreet dolore magna aliquam erat volutpat. Ut wisi enim ad minim veniam, quis nostr",/p/r/pro-detail_pic.png,,/p/r/pro-detail_pic.png,,/p/r/pro-detail_pic.png,,/p/r/pro-detail_pic.png,,"1/27/17, 6:25 AM","1/27/17, 7:17 AM",,,"Block after Info Column",,,,"Use config",,,,,,,"Use config",,,100.0000,0.0000,1,0,0,1,1.0000,1,10000.0000,1,1,1.0000,1,1,1,1,1.0000,1,0,0,0,,,,,,,"/p/r/pro-detail_pic.png,/p/r/pro-sm-2.png,/p/r/pro-sm-3.png,/p/r/pro-sm-4.png",",,,",,"name=Color,type=drop_down,required=1,price=,price_type=fixed,sku=,option_title=Red|name=Color,type=drop_down,required=1,price=,price_type=fixed,sku=,option_title=Grey",,,,,,,
"Foil lined Lorem ipsumq",,Default,simple,"Default Category/Featured,Default Category/Tape,Default Category/ Industrial Packaging",base,"Foil lined Lorem ipsumq","<p>Brown Paper Carriers - Tape Handle Lorem ipsum dolor sit amet, consectetuer adipiscing elit, sed diam nonummy nibh euismod tincidunt ut laoreet dolore magna aliquam erat volutpat. Ut wisi enim ad minim veniam, quis nostrud exerci tation ullamcorper suscipit lobortis nisl ut aliquip ex ea commodo consequat. Duis autem vel eum iriure dolor in hendrerit in vulputate velit esse molestie consequat, vel illum dolore eu feugiat nulla facilisis at vero eros et accumsan et iusto. Lorem ipsum dolor sit amet, consectetuer adipiscing elit, sed diam nonummy nibh euismod tincidunt ut laoreet dolore magna aliquam erat volutpat. Ut wisi enim ad minim veniam, quis nostrud exerci tation ullamcorper suscipit lobortis nisl ut aliquip ex ea commodo consequat. Duis autem vel eum iriure dolor in hendrerit in vulputate</p>","<ul>
<li><a href=""#"">Durable thick paper</a></li>
<li><a href=""#"">Comfortable tape handle</a></li>
<li><a href=""#"">Available in three sizes</a></li>
<li><a href=""#"">Also available with <span>custom print</span></a></li>
</ul>",,1,0,"Catalog, Search",13.5000,,,,brown-paper-carriers-tape-handle-1,"Brown Paper Carriers - Tape Handle","Brown Paper Carriers - Tape Handle","Brown Paper Carriers - Tape Handle Brown Paper Carriers - Tape Handle Lorem ipsum dolor sit amet, consectetuer adipiscing elit, sed diam nonummy nibh euismod tincidunt ut laoreet dolore magna aliquam erat volutpat. Ut wisi enim ad minim veniam, quis nostr",/p/r/pro-detail_pic_1.png,,/p/r/pro-detail_pic_1.png,,/p/r/pro-detail_pic_1.png,,/p/r/pro-detail_pic_1.png,,"1/27/17, 6:26 AM","1/27/17, 6:29 AM",,,"Block after Info Column",,,,"Use config",,,,,,,"Use config",,,100.0000,0.0000,1,0,0,1,1.0000,1,10000.0000,1,1,1.0000,1,1,1,1,1.0000,1,0,0,0,,,,,,,"/p/r/pro-detail_pic_1.png,/p/r/pro-slide-3.png",",",,"name=Size,type=drop_down,required=1,price=,price_type=fixed,sku=,option_title=12|name=Size,type=drop_down,required=1,price=,price_type=fixed,sku=,option_title=15|name=Color,type=drop_down,required=1,price=,price_type=fixed,sku=,option_title=Red|name=Color,type=drop_down,required=1,price=,price_type=fixed,sku=,option_title=Blue",,,,,,,
"Lorem ipsum pack of six recycled cups",,Default,simple,"Default Category/Featured,Default Category/ Custom Printed,Default Category/ Food Packaging",base,"Lorem ipsum pack of six recycled cups","<p>Brown Paper Carriers - Tape Handle Lorem ipsum dolor sit amet, consectetuer adipiscing elit, sed diam nonummy nibh euismod tincidunt ut laoreet dolore magna aliquam erat volutpat. Ut wisi enim ad minim veniam, quis nostrud exerci tation ullamcorper suscipit lobortis nisl ut aliquip ex ea commodo consequat. Duis autem vel eum iriure dolor in hendrerit in vulputate velit esse molestie consequat, vel illum dolore eu feugiat nulla facilisis at vero eros et accumsan et iusto. Lorem ipsum dolor sit amet, consectetuer adipiscing elit, sed diam nonummy nibh euismod tincidunt ut laoreet dolore magna aliquam erat volutpat. Ut wisi enim ad minim veniam, quis nostrud exerci tation ullamcorper suscipit lobortis nisl ut aliquip ex ea commodo consequat. Duis autem vel eum iriure dolor in hendrerit in vulputate</p>","<ul>
<li><a href=""#"">Durable thick paper</a></li>
<li><a href=""#"">Comfortable tape handle</a></li>
<li><a href=""#"">Available in three sizes</a></li>
<li><a href=""#"">Also available with <span>custom print</span></a></li>
</ul>",,1,0,"Catalog, Search",13.5000,,,,brown-paper-carriers-tape-handle-2,"Brown Paper Carriers - Tape Handle","Brown Paper Carriers - Tape Handle","Brown Paper Carriers - Tape Handle Brown Paper Carriers - Tape Handle Lorem ipsum dolor sit amet, consectetuer adipiscing elit, sed diam nonummy nibh euismod tincidunt ut laoreet dolore magna aliquam erat volutpat. Ut wisi enim ad minim veniam, quis nostr",/p/r/pro-slide-1.png,,/p/r/pro-slide-1.png,,/p/r/pro-slide-1.png,,/p/r/pro-slide-1.png,,"1/27/17, 6:29 AM","1/27/17, 6:32 AM",,,"Block after Info Column",,,,"Use config",,,,,,,"Use config",,,100.0000,0.0000,1,0,0,1,1.0000,1,10000.0000,1,1,1.0000,1,1,1,1,1.0000,1,0,0,0,,,,,,,/p/r/pro-slide-1.png,,,"name=Color,type=drop_down,required=1,price=,price_type=fixed,sku=,option_title=Red|name=Color,type=drop_down,required=1,price=,price_type=fixed,sku=,option_title=Blue",,,,,,,
"Lorem ipsum pack of six recycled cups-1",,Default,simple,"Default Category/ Custom Printed,Default Category/ Food Packaging,Default Category/Featured,Default Category/ Industrial Packaging,Default Category/Boxes",base,"Lorem ipsum pack of six recycled cups1","<p>Brown Paper Carriers - Tape Handle Lorem ipsum dolor sit amet, consectetuer adipiscing elit, sed diam nonummy nibh euismod tincidunt ut laoreet dolore magna aliquam erat volutpat. Ut wisi enim ad minim veniam, quis nostrud exerci tation ullamcorper suscipit lobortis nisl ut aliquip ex ea commodo consequat. Duis autem vel eum iriure dolor in hendrerit in vulputate velit esse molestie consequat, vel illum dolore eu feugiat nulla facilisis at vero eros et accumsan et iusto. Lorem ipsum dolor sit amet, consectetuer adipiscing elit, sed diam nonummy nibh euismod tincidunt ut laoreet dolore magna aliquam erat volutpat. Ut wisi enim ad minim veniam, quis nostrud exerci tation ullamcorper suscipit lobortis nisl ut aliquip ex ea commodo consequat. Duis autem vel eum iriure dolor in hendrerit in vulputate</p>","<ul>
<li><a href=""#"">Durable thick paper</a></li>
<li><a href=""#"">Comfortable tape handle</a></li>
<li><a href=""#"">Available in three sizes</a></li>
<li><a href=""#"">Also available with <span>custom print</span></a></li>
</ul>",,1,0,"Catalog, Search",12.5000,,,,brown-paper-carriers-tape-handle-3,"Brown Paper Carriers - Tape Handle","Brown Paper Carriers - Tape Handle","Brown Paper Carriers - Tape Handle Brown Paper Carriers - Tape Handle Lorem ipsum dolor sit amet, consectetuer adipiscing elit, sed diam nonummy nibh euismod tincidunt ut laoreet dolore magna aliquam erat volutpat. Ut wisi enim ad minim veniam, quis nostr",/p/r/pro-slide-1_1.png,,/p/r/pro-slide-1_1.png,,/p/r/pro-slide-1_1.png,,/p/r/pro-slide-1_1.png,,"1/27/17, 6:32 AM","1/27/17, 6:33 AM",,,"Block after Info Column",,,,"Use config",,,,,,,"Use config",,,100.0000,0.0000,1,0,0,1,1.0000,1,10000.0000,1,1,1.0000,1,1,1,1,1.0000,1,0,0,0,,,,,,,/p/r/pro-slide-1_1.png,,,"name=Color,type=drop_down,required=1,price=,price_type=fixed,sku=,option_title=Red|name=Color,type=drop_down,required=1,price=,price_type=fixed,sku=,option_title=Blue",,,,,,,
